[
    {
        "_id": 1,
        "orderID": 1,
        "lineNumber": 1,
        "productKey": "Fossil Watch",
        "quantity" : 1
    },
    {
        "_id": 2,
        "orderID": 2,
        "lineNumber": 2,
        "productKey": "iPhone XS",
        "quantity" : 1
    },
    {
        "_id": 3,
        "orderID": 3,
        "lineNumber": 1,
        "productKey": "Hollister Perfumes",
        "quantity" : 1
    },
    {
        "_id": 4,
        "orderID": 4,
        "lineNumber": 2,
        "productKey": "iPhone 8plus",
        "quantity" : 1
    }
]