[
    {
        "_id": 1,
        "datePlaced": "2018-11-01",
        "dateShipped": "2018-11-04",
        "paymentType": "Cash",
        "amountDue": 999.99,
        "paid": true,
        "customer_id":1
    },
    {
        "_id": 2,
        "datePlaced": "2018-11-01",
        "dateShipped": "2018-11-04",
        "paymentType": "Cash",
        "amountDue": 54.99,
        "paid": true,
        "customer_id":1
    },
    {
        "_id": 3,
        
        "datePlaced": "2018-11-01",
        "dateShipped": "2018-11-04",
        "paymentType": "Cash",
        "amountDue": 499.99,
        "paid": true,
        "customer_id":2
    },
    {
        "_id": 4,
        
        "datePlaced": "2018-11-01",
        "dateShipped": "2018-11-04",
        "paymentType": "Cash",
        "amountDue": 79.99,
        "paid": true,
        "customer_id":1
    }
]