[
    {
        "_id": 1,
        "productKey": "Fossil Watch",
        "description": "Best smart watch ever!",
        "unitPrice": 79.99
    },
    {
        "_id": 2,
        "productKey": "iPhone XS",
        "description": "The Latest!",
        "unitPrice": 999.99
    },
    {
        "_id": 3,
        "productKey": "Hollister  Perfumes",
        "description": "Best Fragnance ever.",
        "unitPrice": 54.99
    },
    {
        "_id": 4,
        "productKey": "Iphone 8plus",
        "description": "By Apple Inc.",
        "unitPrice": 499.99
    }

]